%!PS-Adobe-3.0 EPSF-3.0
%%Creator: (MATLAB, The Mathworks, Inc. Version 8.6.0.267246 \(R2015b\). Operating System: Windows 7)
%%Title: (//servif-home/homes/pgarnier1/Bureau/Proba Matlab/Histogramme Proba.eps)
%%CreationDate: 2017-05-12T15:51:25
%%Pages: (atend)
%%BoundingBox: 0 0 1076 548
%%LanguageLevel: 2
%%EndComments
%%BeginProlog
%%BeginResource: procset (Apache XML Graphics Std ProcSet) 1.2 0
%%Version: 1.2 0
%%Copyright: (Copyright 2001-2003,2010 The Apache Software Foundation. License terms: http://www.apache.org/licenses/LICENSE-2.0)
/bd{bind def}bind def
/ld{load def}bd
/GR/grestore ld
/M/moveto ld
/LJ/setlinejoin ld
/C/curveto ld
/f/fill ld
/LW/setlinewidth ld
/GC/setgray ld
/t/show ld
/N/newpath ld
/CT/concat ld
/cp/closepath ld
/S/stroke ld
/L/lineto ld
/CC/setcmykcolor ld
/A/ashow ld
/GS/gsave ld
/RC/setrgbcolor ld
/RM/rmoveto ld
/ML/setmiterlimit ld
/re {4 2 roll M
1 index 0 rlineto
0 exch rlineto
neg 0 rlineto
cp } bd
/_ctm matrix def
/_tm matrix def
/BT { _ctm currentmatrix pop matrix _tm copy pop 0 0 moveto } bd
/ET { _ctm setmatrix } bd
/iTm { _ctm setmatrix _tm concat } bd
/Tm { _tm astore pop iTm 0 0 moveto } bd
/ux 0.0 def
/uy 0.0 def
/F {
  /Tp exch def
  /Tf exch def
  Tf findfont Tp scalefont setfont
  /cf Tf def  /cs Tp def
} bd
/ULS {currentpoint /uy exch def /ux exch def} bd
/ULE {
  /Tcx currentpoint pop def
  gsave
  newpath
  cf findfont cs scalefont dup
  /FontMatrix get 0 get /Ts exch def /FontInfo get dup
  /UnderlinePosition get Ts mul /To exch def
  /UnderlineThickness get Ts mul /Tt exch def
  ux uy To add moveto  Tcx uy To add lineto
  Tt setlinewidth stroke
  grestore
} bd
/OLE {
  /Tcx currentpoint pop def
  gsave
  newpath
  cf findfont cs scalefont dup
  /FontMatrix get 0 get /Ts exch def /FontInfo get dup
  /UnderlinePosition get Ts mul /To exch def
  /UnderlineThickness get Ts mul /Tt exch def
  ux uy To add cs add moveto Tcx uy To add cs add lineto
  Tt setlinewidth stroke
  grestore
} bd
/SOE {
  /Tcx currentpoint pop def
  gsave
  newpath
  cf findfont cs scalefont dup
  /FontMatrix get 0 get /Ts exch def /FontInfo get dup
  /UnderlinePosition get Ts mul /To exch def
  /UnderlineThickness get Ts mul /Tt exch def
  ux uy To add cs 10 mul 26 idiv add moveto Tcx uy To add cs 10 mul 26 idiv add lineto
  Tt setlinewidth stroke
  grestore
} bd
/QT {
/Y22 exch store
/X22 exch store
/Y21 exch store
/X21 exch store
currentpoint
/Y21 load 2 mul add 3 div exch
/X21 load 2 mul add 3 div exch
/X21 load 2 mul /X22 load add 3 div
/Y21 load 2 mul /Y22 load add 3 div
/X22 load /Y22 load curveto
} bd
/SSPD {
dup length /d exch dict def
{
/v exch def
/k exch def
currentpagedevice k known {
/cpdv currentpagedevice k get def
v cpdv ne {
/upd false def
/nullv v type /nulltype eq def
/nullcpdv cpdv type /nulltype eq def
nullv nullcpdv or
{
/upd true def
} {
/sametype v type cpdv type eq def
sametype {
v type /arraytype eq {
/vlen v length def
/cpdvlen cpdv length def
vlen cpdvlen eq {
0 1 vlen 1 sub {
/i exch def
/obj v i get def
/cpdobj cpdv i get def
obj cpdobj ne {
/upd true def
exit
} if
} for
} {
/upd true def
} ifelse
} {
v type /dicttype eq {
v {
/dv exch def
/dk exch def
/cpddv cpdv dk get def
dv cpddv ne {
/upd true def
exit
} if
} forall
} {
/upd true def
} ifelse
} ifelse
} if
} ifelse
upd true eq {
d k v put
} if
} if
} if
} forall
d length 0 gt {
d setpagedevice
} if
} bd
%%EndResource
%%BeginResource: procset (Apache XML Graphics EPS ProcSet) 1.0 0
%%Version: 1.0 0
%%Copyright: (Copyright 2002-2003 The Apache Software Foundation. License terms: http://www.apache.org/licenses/LICENSE-2.0)
/BeginEPSF { %def
/b4_Inc_state save def         % Save state for cleanup
/dict_count countdictstack def % Count objects on dict stack
/op_count count 1 sub def      % Count objects on operand stack
userdict begin                 % Push userdict on dict stack
/showpage { } def              % Redefine showpage, { } = null proc
0 setgray 0 setlinecap         % Prepare graphics state
1 setlinewidth 0 setlinejoin
10 setmiterlimit [ ] 0 setdash newpath
/languagelevel where           % If level not equal to 1 then
{pop languagelevel             % set strokeadjust and
1 ne                           % overprint to their defaults.
{false setstrokeadjust false setoverprint
} if
} if
} bd
/EndEPSF { %def
count op_count sub {pop} repeat            % Clean up stacks
countdictstack dict_count sub {end} repeat
b4_Inc_state restore
} bd
%%EndResource
%FOPBeginFontDict
%%IncludeResource: font Courier-Bold
%%IncludeResource: font Helvetica
%%IncludeResource: font Courier-BoldOblique
%%IncludeResource: font Courier-Oblique
%%IncludeResource: font Times-Roman
%%IncludeResource: font Helvetica-BoldOblique
%%IncludeResource: font Helvetica-Bold
%%IncludeResource: font Helvetica-Oblique
%%IncludeResource: font Times-BoldItalic
%%IncludeResource: font Courier
%%IncludeResource: font Times-Italic
%%IncludeResource: font Times-Bold
%%IncludeResource: font Symbol
%%IncludeResource: font ZapfDingbats
%FOPEndFontDict
%%BeginResource: encoding WinAnsiEncoding
/WinAnsiEncoding [
/.notdef /.notdef /.notdef /.notdef /.notdef
/.notdef /.notdef /.notdef /.notdef /.notdef
/.notdef /.notdef /.notdef /.notdef /.notdef
/.notdef /.notdef /.notdef /.notdef /.notdef
/.notdef /.notdef /.notdef /.notdef /.notdef
/.notdef /.notdef /.notdef /.notdef /.notdef
/.notdef /.notdef /space /exclam /quotedbl
/numbersign /dollar /percent /ampersand /quotesingle
/parenleft /parenright /asterisk /plus /comma
/hyphen /period /slash /zero /one
/two /three /four /five /six
/seven /eight /nine /colon /semicolon
/less /equal /greater /question /at
/A /B /C /D /E
/F /G /H /I /J
/K /L /M /N /O
/P /Q /R /S /T
/U /V /W /X /Y
/Z /bracketleft /backslash /bracketright /asciicircum
/underscore /quoteleft /a /b /c
/d /e /f /g /h
/i /j /k /l /m
/n /o /p /q /r
/s /t /u /v /w
/x /y /z /braceleft /bar
/braceright /asciitilde /bullet /Euro /bullet
/quotesinglbase /florin /quotedblbase /ellipsis /dagger
/daggerdbl /circumflex /perthousand /Scaron /guilsinglleft
/OE /bullet /Zcaron /bullet /bullet
/quoteleft /quoteright /quotedblleft /quotedblright /bullet
/endash /emdash /asciitilde /trademark /scaron
/guilsinglright /oe /bullet /zcaron /Ydieresis
/space /exclamdown /cent /sterling /currency
/yen /brokenbar /section /dieresis /copyright
/ordfeminine /guillemotleft /logicalnot /sfthyphen /registered
/macron /degree /plusminus /twosuperior /threesuperior
/acute /mu /paragraph /middot /cedilla
/onesuperior /ordmasculine /guillemotright /onequarter /onehalf
/threequarters /questiondown /Agrave /Aacute /Acircumflex
/Atilde /Adieresis /Aring /AE /Ccedilla
/Egrave /Eacute /Ecircumflex /Edieresis /Igrave
/Iacute /Icircumflex /Idieresis /Eth /Ntilde
/Ograve /Oacute /Ocircumflex /Otilde /Odieresis
/multiply /Oslash /Ugrave /Uacute /Ucircumflex
/Udieresis /Yacute /Thorn /germandbls /agrave
/aacute /acircumflex /atilde /adieresis /aring
/ae /ccedilla /egrave /eacute /ecircumflex
/edieresis /igrave /iacute /icircumflex /idieresis
/eth /ntilde /ograve /oacute /ocircumflex
/otilde /odieresis /divide /oslash /ugrave
/uacute /ucircumflex /udieresis /yacute /thorn
/ydieresis
] def
%%EndResource
%FOPBeginFontReencode
/Courier-Bold findfont
dup length dict begin
  {1 index /FID ne {def} {pop pop} ifelse} forall
  /Encoding WinAnsiEncoding def
  currentdict
end
/Courier-Bold exch definefont pop
/Helvetica findfont
dup length dict begin
  {1 index /FID ne {def} {pop pop} ifelse} forall
  /Encoding WinAnsiEncoding def
  currentdict
end
/Helvetica exch definefont pop
/Courier-BoldOblique findfont
dup length dict begin
  {1 index /FID ne {def} {pop pop} ifelse} forall
  /Encoding WinAnsiEncoding def
  currentdict
end
/Courier-BoldOblique exch definefont pop
/Courier-Oblique findfont
dup length dict begin
  {1 index /FID ne {def} {pop pop} ifelse} forall
  /Encoding WinAnsiEncoding def
  currentdict
end
/Courier-Oblique exch definefont pop
/Times-Roman findfont
dup length dict begin
  {1 index /FID ne {def} {pop pop} ifelse} forall
  /Encoding WinAnsiEncoding def
  currentdict
end
/Times-Roman exch definefont pop
/Helvetica-BoldOblique findfont
dup length dict begin
  {1 index /FID ne {def} {pop pop} ifelse} forall
  /Encoding WinAnsiEncoding def
  currentdict
end
/Helvetica-BoldOblique exch definefont pop
/Helvetica-Bold findfont
dup length dict begin
  {1 index /FID ne {def} {pop pop} ifelse} forall
  /Encoding WinAnsiEncoding def
  currentdict
end
/Helvetica-Bold exch definefont pop
/Helvetica-Oblique findfont
dup length dict begin
  {1 index /FID ne {def} {pop pop} ifelse} forall
  /Encoding WinAnsiEncoding def
  currentdict
end
/Helvetica-Oblique exch definefont pop
/Times-BoldItalic findfont
dup length dict begin
  {1 index /FID ne {def} {pop pop} ifelse} forall
  /Encoding WinAnsiEncoding def
  currentdict
end
/Times-BoldItalic exch definefont pop
/Courier findfont
dup length dict begin
  {1 index /FID ne {def} {pop pop} ifelse} forall
  /Encoding WinAnsiEncoding def
  currentdict
end
/Courier exch definefont pop
/Times-Italic findfont
dup length dict begin
  {1 index /FID ne {def} {pop pop} ifelse} forall
  /Encoding WinAnsiEncoding def
  currentdict
end
/Times-Italic exch definefont pop
/Times-Bold findfont
dup length dict begin
  {1 index /FID ne {def} {pop pop} ifelse} forall
  /Encoding WinAnsiEncoding def
  currentdict
end
/Times-Bold exch definefont pop
%FOPEndFontReencode
%%EndProlog
%%Page: 1 1
%%PageBoundingBox: 0 0 1076 548
%%BeginPageSetup
[1 0 0 -1 0 548] CT
%%EndPageSetup
GS
[0.75 0 0 0.75 0 0.5] CT
1 GC
N
0 0 1435 730 re
f
GR
GS
[0.75 0 0 0.75 0 0.5] CT
1 GC
N
0 0 1435 730 re
f
GR
GS
[0.75 0 0 0.75 0 0.5] CT
1 GC
N
187 650 M
1299 650 L
1299 55 L
187 55 L
cp
f
GR
GS
[0.75 0 0 0.75 0 0.5] CT
0.149 GC
2 setlinecap
1 LJ
0.667 LW
N
187 650 M
1299 650 L
S
GR
GS
[0.75 0 0 0.75 0 0.5] CT
0.149 GC
2 setlinecap
1 LJ
0.667 LW
N
187 650 M
187 638.88 L
S
GR
GS
[0.75 0 0 0.75 0 0.5] CT
0.149 GC
2 setlinecap
1 LJ
0.667 LW
N
310.556 650 M
310.556 638.88 L
S
GR
GS
[0.75 0 0 0.75 0 0.5] CT
0.149 GC
2 setlinecap
1 LJ
0.667 LW
N
434.111 650 M
434.111 638.88 L
S
GR
GS
[0.75 0 0 0.75 0 0.5] CT
0.149 GC
2 setlinecap
1 LJ
0.667 LW
N
557.667 650 M
557.667 638.88 L
S
GR
GS
[0.75 0 0 0.75 0 0.5] CT
0.149 GC
2 setlinecap
1 LJ
0.667 LW
N
681.222 650 M
681.222 638.88 L
S
GR
GS
[0.75 0 0 0.75 0 0.5] CT
0.149 GC
2 setlinecap
1 LJ
0.667 LW
N
804.778 650 M
804.778 638.88 L
S
GR
GS
[0.75 0 0 0.75 0 0.5] CT
0.149 GC
2 setlinecap
1 LJ
0.667 LW
N
928.333 650 M
928.333 638.88 L
S
GR
GS
[0.75 0 0 0.75 0 0.5] CT
0.149 GC
2 setlinecap
1 LJ
0.667 LW
N
1051.889 650 M
1051.889 638.88 L
S
GR
GS
[0.75 0 0 0.75 0 0.5] CT
0.149 GC
2 setlinecap
1 LJ
0.667 LW
N
1175.444 650 M
1175.444 638.88 L
S
GR
GS
[0.75 0 0 0.75 0 0.5] CT
0.149 GC
2 setlinecap
1 LJ
0.667 LW
N
1299 650 M
1299 638.88 L
S
GR
GS
[0.75 0 0 0.75 140.25 491.99998] CT
0.149 GC
/Helvetica 13 F
GS
[1 0 0 1 0 0] CT
-4 14 moveto 
1 -1 scale
(0) t 
GR
GR
GS
[0.75 0 0 0.75 232.91666 491.99998] CT
0.149 GC
/Helvetica 13 F
GS
[1 0 0 1 0 0] CT
-7.5 14 moveto 
1 -1 scale
(20) t 
GR
GR
GS
[0.75 0 0 0.75 325.58334 491.99998] CT
0.149 GC
/Helvetica 13 F
GS
[1 0 0 1 0 0] CT
-7.5 14 moveto 
1 -1 scale
(40) t 
GR
GR
GS
[0.75 0 0 0.75 418.25002 491.99998] CT
0.149 GC
/Helvetica 13 F
GS
[1 0 0 1 0 0] CT
-7.5 14 moveto 
1 -1 scale
(60) t 
GR
GR
GS
[0.75 0 0 0.75 510.91667 491.99998] CT
0.149 GC
/Helvetica 13 F
GS
[1 0 0 1 0 0] CT
-7.5 14 moveto 
1 -1 scale
(80) t 
GR
GR
GS
[0.75 0 0 0.75 603.58333 491.99998] CT
0.149 GC
/Helvetica 13 F
GS
[1 0 0 1 0 0] CT
-11 14 moveto 
1 -1 scale
(100) t 
GR
GR
GS
[0.75 0 0 0.75 696.24998 491.99998] CT
0.149 GC
/Helvetica 13 F
GS
[1 0 0 1 0 0] CT
-11 14 moveto 
1 -1 scale
(120) t 
GR
GR
GS
[0.75 0 0 0.75 788.91669 491.99998] CT
0.149 GC
/Helvetica 13 F
GS
[1 0 0 1 0 0] CT
-11 14 moveto 
1 -1 scale
(140) t 
GR
GR
GS
[0.75 0 0 0.75 881.58334 491.99998] CT
0.149 GC
/Helvetica 13 F
GS
[1 0 0 1 0 0] CT
-11 14 moveto 
1 -1 scale
(160) t 
GR
GR
GS
[0.75 0 0 0.75 974.25 491.99998] CT
0.149 GC
/Helvetica 13 F
GS
[1 0 0 1 0 0] CT
-11 14 moveto 
1 -1 scale
(180) t 
GR
GR
GS
[0.75 0 0 0.75 557.25037 505.75002] CT
0.149 GC
/Helvetica 15 F
GS
[1 0 0 1 0 0] CT
-96 16 moveto 
1 -1 scale
(Nb de minutes depuis d\351part) t 
GR
GR
GS
[0.75 0 0 0.75 0 0.5] CT
0.149 GC
2 setlinecap
1 LJ
0.667 LW
N
187 650 M
187 55 L
S
GR
GS
[0.75 0 0 0.75 0 0.5] CT
0.149 GC
2 setlinecap
1 LJ
0.667 LW
N
187 650 M
198.12 650 L
S
GR
GS
[0.75 0 0 0.75 0 0.5] CT
0.149 GC
2 setlinecap
1 LJ
0.667 LW
N
187 575.625 M
198.12 575.625 L
S
GR
GS
[0.75 0 0 0.75 0 0.5] CT
0.149 GC
2 setlinecap
1 LJ
0.667 LW
N
187 501.25 M
198.12 501.25 L
S
GR
GS
[0.75 0 0 0.75 0 0.5] CT
0.149 GC
2 setlinecap
1 LJ
0.667 LW
N
187 426.875 M
198.12 426.875 L
S
GR
GS
[0.75 0 0 0.75 0 0.5] CT
0.149 GC
2 setlinecap
1 LJ
0.667 LW
N
187 352.5 M
198.12 352.5 L
S
GR
GS
[0.75 0 0 0.75 0 0.5] CT
0.149 GC
2 setlinecap
1 LJ
0.667 LW
N
187 278.125 M
198.12 278.125 L
S
GR
GS
[0.75 0 0 0.75 0 0.5] CT
0.149 GC
2 setlinecap
1 LJ
0.667 LW
N
187 203.75 M
198.12 203.75 L
S
GR
GS
[0.75 0 0 0.75 0 0.5] CT
0.149 GC
2 setlinecap
1 LJ
0.667 LW
N
187 129.375 M
198.12 129.375 L
S
GR
GS
[0.75 0 0 0.75 0 0.5] CT
0.149 GC
2 setlinecap
1 LJ
0.667 LW
N
187 55 M
198.12 55 L
S
GR
GS
[0.75 0 0 0.75 136.25 488] CT
0.149 GC
/Helvetica 13 F
GS
[1 0 0 1 0 0] CT
-8 5.5 moveto 
1 -1 scale
(0) t 
GR
GR
GS
[0.75 0 0 0.75 136.25 432.21875] CT
0.149 GC
/Helvetica 13 F
GS
[1 0 0 1 0 0] CT
-19 5.5 moveto 
1 -1 scale
(0.5) t 
GR
GR
GS
[0.75 0 0 0.75 136.25 376.4375] CT
0.149 GC
/Helvetica 13 F
GS
[1 0 0 1 0 0] CT
-8 5.5 moveto 
1 -1 scale
(1) t 
GR
GR
GS
[0.75 0 0 0.75 136.25 320.65625] CT
0.149 GC
/Helvetica 13 F
GS
[1 0 0 1 0 0] CT
-19 5.5 moveto 
1 -1 scale
(1.5) t 
GR
GR
GS
[0.75 0 0 0.75 136.25 264.875] CT
0.149 GC
/Helvetica 13 F
GS
[1 0 0 1 0 0] CT
-8 5.5 moveto 
1 -1 scale
(2) t 
GR
GR
GS
[0.75 0 0 0.75 136.25 209.09375] CT
0.149 GC
/Helvetica 13 F
GS
[1 0 0 1 0 0] CT
-19 5.5 moveto 
1 -1 scale
(2.5) t 
GR
GR
GS
[0.75 0 0 0.75 136.25 153.3125] CT
0.149 GC
/Helvetica 13 F
GS
[1 0 0 1 0 0] CT
-8 5.5 moveto 
1 -1 scale
(3) t 
GR
GR
GS
[0.75 0 0 0.75 136.25 97.53125] CT
0.149 GC
/Helvetica 13 F
GS
[1 0 0 1 0 0] CT
-19 5.5 moveto 
1 -1 scale
(3.5) t 
GR
GR
GS
[0.75 0 0 0.75 136.25 41.75] CT
0.149 GC
/Helvetica 13 F
GS
[1 0 0 1 0 0] CT
-8 5.5 moveto 
1 -1 scale
(4) t 
GR
GR
GS
[0 -0.75 0.75 0 119 264.87479] CT
0.149 GC
/Helvetica 15 F
GS
[1 0 0 1 0 0] CT
-43.5 -4 moveto 
1 -1 scale
(Nb de clients) t 
GR
GR
GS
[0.75 0 0 0.75 557.25055 39.68749] CT
/Helvetica-Bold 15 F
GS
[1 0 0 1 0 0] CT
-59.5 -4 moveto 
1 -1 scale
(Presence clients) t 
GR
GR
GS
[0.75 0 0 0.75 0 0.5] CT
0 0.447 0.741 RC
10.0 ML
0.667 LW
N
193.178 650 M
199.356 650 L
199.356 501.25 L
205.533 501.25 L
205.533 650 L
211.711 650 L
211.711 650 L
217.889 650 L
217.889 501.25 L
224.067 501.25 L
224.067 501.25 L
230.244 501.25 L
230.244 501.25 L
236.422 501.25 L
236.422 650 L
242.6 650 L
242.6 650 L
248.778 650 L
248.778 650 L
254.956 650 L
254.956 650 L
261.133 650 L
261.133 650 L
267.311 650 L
267.311 650 L
273.489 650 L
273.489 650 L
279.667 650 L
279.667 650 L
285.844 650 L
285.844 650 L
292.022 650 L
292.022 650 L
298.2 650 L
298.2 650 L
304.378 650 L
304.378 501.25 L
310.556 501.25 L
310.556 650 L
316.733 650 L
316.733 650 L
322.911 650 L
322.911 650 L
329.089 650 L
329.089 650 L
335.267 650 L
335.267 650 L
341.444 650 L
341.444 650 L
347.622 650 L
S
GR
GS
[0.75 0 0 0.75 0 0.5] CT
0 0.447 0.741 RC
10.0 ML
0.667 LW
N
341.444 650 M
347.622 650 L
347.622 650 L
353.8 650 L
353.8 650 L
359.978 650 L
359.978 650 L
366.156 650 L
366.156 650 L
372.333 650 L
372.333 650 L
378.511 650 L
378.511 650 L
384.689 650 L
384.689 650 L
390.867 650 L
390.867 650 L
397.044 650 L
397.044 650 L
403.222 650 L
403.222 650 L
409.4 650 L
409.4 650 L
415.578 650 L
415.578 650 L
421.756 650 L
421.756 650 L
427.933 650 L
427.933 650 L
434.111 650 L
434.111 650 L
440.289 650 L
440.289 650 L
446.467 650 L
446.467 650 L
452.644 650 L
452.644 650 L
458.822 650 L
458.822 650 L
465 650 L
465 650 L
471.178 650 L
471.178 501.25 L
477.356 501.25 L
477.356 650 L
483.533 650 L
483.533 650 L
489.711 650 L
489.711 501.25 L
495.889 501.25 L
495.889 501.25 L
502.067 501.25 L
S
GR
GS
[0.75 0 0 0.75 0 0.5] CT
0 0.447 0.741 RC
10.0 ML
0.667 LW
N
495.889 501.25 M
502.067 501.25 L
502.067 501.25 L
508.244 501.25 L
508.244 501.25 L
514.422 501.25 L
514.422 650 L
520.6 650 L
520.6 650 L
526.778 650 L
526.778 650 L
532.956 650 L
532.956 650 L
539.133 650 L
539.133 650 L
545.311 650 L
545.311 650 L
551.489 650 L
551.489 650 L
557.667 650 L
557.667 650 L
563.844 650 L
563.844 650 L
570.022 650 L
570.022 650 L
576.2 650 L
576.2 650 L
582.378 650 L
582.378 650 L
588.556 650 L
588.556 650 L
594.733 650 L
594.733 650 L
600.911 650 L
600.911 501.25 L
607.089 501.25 L
607.089 352.5 L
613.267 352.5 L
613.267 352.5 L
619.444 352.5 L
619.444 352.5 L
625.622 352.5 L
625.622 501.25 L
631.8 501.25 L
631.8 501.25 L
637.978 501.25 L
637.978 501.25 L
644.156 501.25 L
644.156 501.25 L
650.333 501.25 L
650.333 352.5 L
656.511 352.5 L
S
GR
GS
[0.75 0 0 0.75 0 0.5] CT
0 0.447 0.741 RC
10.0 ML
0.667 LW
N
650.333 352.5 M
656.511 352.5 L
656.511 203.75 L
662.689 203.75 L
662.689 55 L
668.867 55 L
668.867 55 L
675.044 55 L
675.044 55 L
681.222 55 L
681.222 203.75 L
687.4 203.75 L
687.4 203.75 L
693.578 203.75 L
693.578 203.75 L
699.756 203.75 L
699.756 352.5 L
705.933 352.5 L
705.933 352.5 L
712.111 352.5 L
712.111 352.5 L
718.289 352.5 L
718.289 650 L
724.467 650 L
724.467 650 L
730.644 650 L
730.644 650 L
736.822 650 L
736.822 650 L
743 650 L
743 650 L
749.178 650 L
749.178 650 L
755.356 650 L
755.356 650 L
761.533 650 L
761.533 650 L
767.711 650 L
767.711 650 L
773.889 650 L
773.889 650 L
780.067 650 L
780.067 650 L
786.244 650 L
786.244 650 L
792.422 650 L
792.422 650 L
798.6 650 L
798.6 650 L
804.778 650 L
804.778 650 L
810.956 650 L
S
GR
GS
[0.75 0 0 0.75 0 0.5] CT
0 0.447 0.741 RC
10.0 ML
0.667 LW
N
804.778 650 M
810.956 650 L
810.956 650 L
817.133 650 L
817.133 501.25 L
823.311 501.25 L
823.311 501.25 L
829.489 501.25 L
829.489 352.5 L
835.667 352.5 L
835.667 352.5 L
841.844 352.5 L
841.844 203.75 L
848.022 203.75 L
848.022 203.75 L
854.2 203.75 L
854.2 203.75 L
860.378 203.75 L
860.378 203.75 L
866.556 203.75 L
866.556 203.75 L
872.733 203.75 L
872.733 352.5 L
878.911 352.5 L
878.911 352.5 L
885.089 352.5 L
885.089 352.5 L
891.267 352.5 L
891.267 352.5 L
897.444 352.5 L
897.444 352.5 L
903.622 352.5 L
903.622 203.75 L
909.8 203.75 L
909.8 352.5 L
915.978 352.5 L
915.978 352.5 L
922.156 352.5 L
922.156 352.5 L
928.333 352.5 L
928.333 352.5 L
934.511 352.5 L
934.511 352.5 L
940.689 352.5 L
940.689 352.5 L
946.867 352.5 L
946.867 352.5 L
953.044 352.5 L
953.044 55 L
959.222 55 L
959.222 55 L
965.4 55 L
S
GR
GS
[0.75 0 0 0.75 0 0.5] CT
0 0.447 0.741 RC
10.0 ML
0.667 LW
N
959.222 55 M
965.4 55 L
965.4 203.75 L
971.578 203.75 L
971.578 203.75 L
977.756 203.75 L
977.756 203.75 L
983.933 203.75 L
983.933 203.75 L
990.111 203.75 L
990.111 203.75 L
996.289 203.75 L
996.289 203.75 L
1002.467 203.75 L
1002.467 352.5 L
1008.644 352.5 L
1008.644 501.25 L
1014.822 501.25 L
1014.822 501.25 L
1021 501.25 L
1021 352.5 L
1027.178 352.5 L
1027.178 352.5 L
1033.356 352.5 L
1033.356 352.5 L
1039.533 352.5 L
1039.533 55 L
1045.711 55 L
1045.711 203.75 L
1051.889 203.75 L
1051.889 203.75 L
1058.067 203.75 L
1058.067 203.75 L
1064.244 203.75 L
1064.244 352.5 L
1070.422 352.5 L
1070.422 501.25 L
1076.6 501.25 L
1076.6 352.5 L
1082.778 352.5 L
1082.778 352.5 L
1088.956 352.5 L
1088.956 352.5 L
1095.133 352.5 L
1095.133 352.5 L
1101.311 352.5 L
1101.311 203.75 L
1107.489 203.75 L
1107.489 203.75 L
1113.667 203.75 L
1113.667 203.75 L
1119.844 203.75 L
S
GR
GS
[0.75 0 0 0.75 0 0.5] CT
0 0.447 0.741 RC
10.0 ML
0.667 LW
N
1113.667 203.75 M
1119.844 203.75 L
1119.844 352.5 L
1126.022 352.5 L
1126.022 352.5 L
1132.2 352.5 L
1132.2 352.5 L
1138.378 352.5 L
1138.378 501.25 L
1144.556 501.25 L
1144.556 501.25 L
1150.733 501.25 L
1150.733 501.25 L
1156.911 501.25 L
1156.911 501.25 L
1163.089 501.25 L
1163.089 650 L
1169.267 650 L
1169.267 650 L
1175.444 650 L
1175.444 501.25 L
1181.622 501.25 L
1181.622 650 L
1187.8 650 L
1187.8 650 L
1193.978 650 L
1193.978 650 L
1200.156 650 L
1200.156 650 L
1206.333 650 L
1206.333 650 L
1212.511 650 L
1212.511 650 L
1218.689 650 L
1218.689 650 L
1224.867 650 L
1224.867 650 L
1231.044 650 L
1231.044 650 L
1237.222 650 L
1237.222 650 L
1243.4 650 L
1243.4 650 L
1249.578 650 L
1249.578 650 L
1255.756 650 L
1255.756 650 L
1261.933 650 L
1261.933 650 L
1268.111 650 L
1268.111 650 L
1274.289 650 L
S
GR
GS
[0.75 0 0 0.75 0 0.5] CT
0 0.447 0.741 RC
10.0 ML
0.667 LW
N
1268.111 650 M
1274.289 650 L
1274.289 650 L
1280.467 650 L
1280.467 650 L
1286.644 650 L
1286.644 650 L
1292.822 650 L
1292.822 650 L
1299 650 L
1299 650 L
S
GR
%%Trailer
%%Pages: 1
%%EOF
